{
  "SIDEBAR": [
            	  {
              		"Main_Moudle_Name" : "Dashboard",
                  "Url": "dashboard",
                  "Icon":"nav-icon fas fa-tachometer-alt",
                  "Active":true
            	  },
                {
              		"Main_Moudle_Name" : "Admin Settings",
                  "Url": "adminSettings",
                  "Icon":"nav-icon fas fa-tachometer-alt",
                  "Active":true
            	  },
                {
              		"Main_Moudle_Name" : "Faq",
                  "Url": "faq",
                  "Icon":"nav-icon fas fa-question-circle",
                  "Active":true,
                  "Sub_Module_Name"  : [
                                          {
                                            "Moudle_Name": "List Faq",
                                            "Url": "listFaq"
                                          },
                                          {
                                            "Moudle_Name": "Add Faq",
                                            "Url": "addFaq"
                                          }
                            	          ]
            	  },
                {
              		"Main_Moudle_Name" : "Language",
                  "Url": "language",
                  "Icon":"nav-icon fas fa-language",
                  "Active":true,
                  "Sub_Module_Name"  : [
                                          {
                                            "Moudle_Name": "List Language",
                                            "Url": "listLanguage"
                                          },
                                          {
                                            "Moudle_Name": "Add Language",
                                            "Url": "addLanguage"
                                          }
                            	          ]
            	  },
                {
              		"Main_Moudle_Name" : "Country",
                  "Url": "country",
                  "Icon":"nav-icon fas fa-globe",
                  "Active":true,
                  "Sub_Module_Name"  : [
                                          {
                                            "Moudle_Name": "List Country",
                                            "Url": "listCountry"
                                          },
                                          {
                                            "Moudle_Name": "Add Country",
                                            "Url": "addCountry"
                                          }
                            	          ]
            	  },
                {
              		"Main_Moudle_Name" : "Pages",
                  "Url": "pages",
                  "Icon":"nav-icon fas fa-clone",
                  "Active":true,
                  "Sub_Module_Name"  : [
                                          {
                                            "Moudle_Name": "List Pages",
                                            "Url": "listPages"
                                          },
                                          {
                                            "Moudle_Name": "Add Page",
                                            "Url": "addPage"
                                          }
                            	          ]
            	  },
                {
              		"Main_Moudle_Name" : "Email Template",
                  "Url": "emails",
                  "Icon":"nav-icon fas fa-edit",
                  "Active":true,
                  "Sub_Module_Name"  : [
                                          {
                                            "Moudle_Name": "List Template",
                                            "Url": "listTemplates"
                                          },
                                          {
                                            "Moudle_Name": "Add Template",
                                            "Url": "addTemplate"
                                          }
                            	          ]
            	  },
                {
                  "Main_Moudle_Name" : "Subscribers",
                  "Url": "subscribers",
                  "Icon":"nav-icon fas fa-envelope",
                  "Active":true
                }
	           ]
}
